ID,Name,DOB,Father's Name,Address,Phone Number,Crime Commited,Fingerprint,Date of Arrest,Image_Folder_Name
1,Rahul Gupta,30/12/1981,Karan Gupta,"235, Floor 2, C-2,Rail Vihar, vishakapatnam, Andhra Pradesh",9812739871,DUI,////NIL////,10/05/2019,Datasource_2/criminal_1/1.jpg
2,Surya Reddy,07/11/1990,Srini Reddy,"C-118, Near Arya Samaji Temple, Hyderabad",8857415984,Homicide,////NIL////,15/01/2019,Datasource_2/criminal_2/2.jpg
3,Subhash Nawani,24/10/1985,Ramesh Nawani,"58, IA colony, Hyderabad",8846186161,DUI,////NIL////,08/02/2019,Datasource_2/criminal_3/3.jpg
4,Nikhil Garg,18/08/1994,Ujay Garg,"S-118, 11th St, KIMS Hospital,",9891277211,Public Urination,////NIL////,30/04/2019,Datasource_2/criminal_4/4.jpg
5,Neer Patel,08/09/1992,Sardar Patel,"315,Balaji Enclave, Hyderabad",9891987664,Public Indecency,////NIL////,26/03/2019,Datasource_2/criminal_5/5.jpg
6,Naman Mahopatra,18/02/1991,Raju Mahopatra,"20,IA Colony, Hyderabad,Telengana",9958123713,Gang Violence,////NIL////,11/12/2018,Datasource_2/criminal_6/6.jpg
7,Ashish Malhotra,02/02/1985,Aditya Malhotra,"31,Doyens Colony,Hyderabad,Telengana",8578519134,DUI,////NIL////,26/12/2018,Datasource_2/criminal_7/7.jpg
