ID,Name,DOB,Father's Name,Address,Phone Number,Crime Commited,Fingerprint,Date of Arrest,Image_Folder_Name
1,Ram Rajan,26/09/1995,Rajan Rakesh,"A-502, IA Colony, Hyderabad, Telengana",8949717998,Grand Theft Auto,////NIL////,28/01/2019,Datasource_1/images/1.jpg
2,Akhilesh Janga,06/04/1992,Jamuna Janga,"303, Sindhi colony, Hyderabad, Telengana",8816716415,Public Indecency,////NIL////,13/03/2019,Datasource_1/images/2.jpg
3,Nikhil Malhotra,15/01/1990,Ashutosh Malhotra,"10, Ravi Colony,Hyderabad, Telengana",9958123713,Gang Violence,////NIL////,30/03/2019,Datasource_1/images/3.jpg
4,Ashish Malhi,02/02/1985,Aditya Malhi,"31,Doyens Colony,Hyderabad,Telengana",8578519134,Manslaughter,////NIL////,05/05/2019,Datasource_1/images/4.jpg
5,,,,,,,,,Datasource_1/images/5.jpg
6,,,,,,,,,Datasource_1/images/6.jpg
7,,,,,,,,,Datasource_1/images/7.jpg
8,,,,,,,,,Datasource_1/images/8.jpg
9,,,,,,,,,Datasource_1/images/9.jpg
10,,,,,,,,,Datasource_1/images/10.jpg
11,,,,,,,,,Datasource_1/images/11.jpg
12,,,,,,,,,Datasource_1/images/12.jpg
13,,,,,,,,,Datasource_1/images/13.jpg
14,,,,,,,,,Datasource_1/images/14.jpg
15,,,,,,,,,Datasource_1/images/15.jpg
16,,,,,,,,,Datasource_1/images/16.jpg
17,,,,,,,,,Datasource_1/images/17.jpg
18,,,,,,,,,Datasource_1/images/18.jpg
19,,,,,,,,,Datasource_1/images/19.jpg
20,,,,,,,,,Datasource_1/images/20.jpg
21,,,,,,,,,Datasource_1/images/21.jpg
22,,,,,,,,,Datasource_1/images/22.jpg
23,,,,,,,,,Datasource_1/images/23.jpg
24,,,,,,,,,Datasource_1/images/24.jpg
25,,,,,,,,,Datasource_1/images/25.jpg
26,,,,,,,,,Datasource_1/images/26.jpg
27,,,,,,,,,Datasource_1/images/27.jpg
28,,,,,,,,,Datasource_1/images/28.jpg
29,,,,,,,,,Datasource_1/images/29.jpg
30,,,,,,,,,Datasource_1/images/30.jpg
31,,,,,,,,,Datasource_1/images/31.jpg
32,,,,,,,,,Datasource_1/images/32.jpg
33,,,,,,,,,Datasource_1/images/33.jpg
34,,,,,,,,,Datasource_1/images/34.jpg
35,,,,,,,,,Datasource_1/images/35.jpg
36,,,,,,,,,Datasource_1/images/36.jpg
37,,,,,,,,,Datasource_1/images/37.jpg
38,,,,,,,,,Datasource_1/images/38.jpg
39,,,,,,,,,Datasource_1/images/39.jpg
40,,,,,,,,,Datasource_1/images/40.jpg
41,,,,,,,,,Datasource_1/images/41.jpg
42,,,,,,,,,Datasource_1/images/42.jpg
43,,,,,,,,,Datasource_1/images/43.jpg
44,,,,,,,,,Datasource_1/images/44.jpg
45,,,,,,,,,Datasource_1/images/45.jpg
46,,,,,,,,,Datasource_1/images/46.jpg
47,,,,,,,,,Datasource_1/images/47.jpg
48,,,,,,,,,Datasource_1/images/48.jpg
49,,,,,,,,,Datasource_1/images/49.jpg
50,,,,,,,,,Datasource_1/images/50.jpg
51,,,,,,,,,Datasource_1/images/51.jpg
52,,,,,,,,,Datasource_1/images/52.jpg
53,,,,,,,,,Datasource_1/images/53.jpg
54,,,,,,,,,Datasource_1/images/54.jpg
55,,,,,,,,,Datasource_1/images/55.jpg
56,,,,,,,,,Datasource_1/images/56.jpg
57,,,,,,,,,Datasource_1/images/57.jpg
58,,,,,,,,,Datasource_1/images/58.jpg
59,,,,,,,,,Datasource_1/images/59.jpg
60,,,,,,,,,Datasource_1/images/60.jpg
61,,,,,,,,,Datasource_1/images/61.jpg
62,,,,,,,,,Datasource_1/images/62.jpg
63,,,,,,,,,Datasource_1/images/63.jpg
64,,,,,,,,,Datasource_1/images/64.jpg
65,,,,,,,,,Datasource_1/images/65.jpg
66,,,,,,,,,Datasource_1/images/66.jpg
67,,,,,,,,,Datasource_1/images/67.jpg
68,,,,,,,,,Datasource_1/images/68.jpg
69,,,,,,,,,Datasource_1/images/69.jpg
70,,,,,,,,,Datasource_1/images/70.jpg
71,,,,,,,,,Datasource_1/images/71.jpg
72,,,,,,,,,Datasource_1/images/72.jpg
73,,,,,,,,,Datasource_1/images/73.jpg
74,,,,,,,,,Datasource_1/images/74.jpg
75,,,,,,,,,Datasource_1/images/75.jpg
76,,,,,,,,,Datasource_1/images/76.jpg
77,,,,,,,,,Datasource_1/images/77.jpg
78,,,,,,,,,Datasource_1/images/78.jpg
79,,,,,,,,,Datasource_1/images/79.jpg
80,,,,,,,,,Datasource_1/images/80.jpg
81,,,,,,,,,Datasource_1/images/81.jpg
82,,,,,,,,,Datasource_1/images/82.jpg
83,,,,,,,,,Datasource_1/images/83.jpg
84,,,,,,,,,Datasource_1/images/84.jpg
85,,,,,,,,,Datasource_1/images/85.jpg
86,,,,,,,,,Datasource_1/images/86.jpg
87,,,,,,,,,Datasource_1/images/87.jpg
88,,,,,,,,,Datasource_1/images/88.jpg
89,,,,,,,,,Datasource_1/images/89.jpg
90,,,,,,,,,Datasource_1/images/90.jpg
91,,,,,,,,,Datasource_1/images/91.jpg
92,,,,,,,,,Datasource_1/images/92.jpg
93,,,,,,,,,Datasource_1/images/93.jpg
94,,,,,,,,,Datasource_1/images/94.jpg
95,,,,,,,,,Datasource_1/images/95.jpg
96,,,,,,,,,Datasource_1/images/96.jpg
97,,,,,,,,,Datasource_1/images/97.jpg
98,,,,,,,,,Datasource_1/images/98.jpg
99,,,,,,,,,Datasource_1/images/99.jpg
100,,,,,,,,,Datasource_1/images/100.jpg
